{"meta":{"dataYear":2024,"page":245,"pageSize":20,"total":4908,"totalPages":246,"exportedAt":"2026-05-29T20:08:43.607Z"},"lenders":[{"lei":"9845002DSD78111E8394","name":"IntroLend Home Results, LLC","nmls":"","type":"IMB","dataYear":2024,"orig":0,"dollarVol":0,"branches":null,"states":0,"fico":null,"ltv":null,"dti":null,"rate":6.75,"hmdaRate":null,"rateSource":"estimated","products":["Conventional"],"conf":70,"hmdaInsights":{"schemaVersion":2,"reportingYear":2024,"totalApplications":8,"totalOriginated":0,"actionTaken":{"1":0,"2":0,"3":0,"4":8,"5":0,"6":0,"7":0,"8":0},"denialReasons":{"1":0,"2":0,"3":0,"4":0,"5":0,"6":0,"7":0,"8":0,"9":0,"10":0},"denialReasonsSuppressedCount":0,"denialCount":0,"withdrawalCount":8,"incompleteCount":0,"approvedNotAcceptedCount":0,"purchasedLoanCount":0,"originatedMedianInterestRate":null,"originatedMedianRateSpread":null,"originatedMedianLoanTermMonths":null,"originatedMedianCltv":null,"originatedMedianDti":null,"spreadSampleSize":0,"termSampleSize":0,"cltvSampleSize":0,"dtiSampleSize":0,"interestRateSampleSize":0,"loanTypeSummary":{"1":{"applications":7,"originated":0,"dollarVolume":0},"2":{"applications":1,"originated":0,"dollarVolume":0},"3":{"applications":0,"originated":0,"dollarVolume":0},"4":{"applications":0,"originated":0,"dollarVolume":0}},"lienOnOriginated":{},"hoepaOnOriginated":{},"submissionOnApplications":{"1":8},"initiallyPayableOnApplications":{"3":8},"geographyHhiStates":null,"topStateOriginationShare":null,"stateBreakdown":[],"topCounties":[],"topMsas":[],"quarterlyFromLar":null,"monthlyFromLar":null,"hasActionTakenDate":false,"databrowserSource":false,"source":"modifiedLar-2024-direct","note":"Aggregated directly from FFIEC modified-LAR per-institution file."},"nmlsNumber":null,"legalName":"IntroLend Home Results, LLC","dba":null,"originationBreakdown":{"byProduct":{"Conventional":{"originated":0,"approximate":false,"hmdaLoanType":1},"FHA":{"originated":0,"approximate":false,"hmdaLoanType":2},"VA":{"originated":0,"approximate":false,"hmdaLoanType":3},"USDA":{"originated":0,"approximate":false,"hmdaLoanType":4}},"totalOriginatedUnits":0,"mergedInsightsFromYear":2024},"declinations":{"available":true,"mergedFromReportingYear":2024,"totalApplications":8,"deniedApplications":0,"withdrawnApplications":8,"incompleteApplications":0,"approvedNotAccepted":0,"purchasedLoans":0,"denialReasons":{"1":0,"2":0,"3":0,"4":0,"5":0,"6":0,"7":0,"8":0,"9":0,"10":0},"denialReasonsSuppressedCount":0},"rank":4901},{"lei":"9845001A39478A496059","name":"INTROLEND, LLC MOMENTUM","nmls":"","type":"IMB","dataYear":2024,"orig":0,"dollarVol":0,"branches":null,"states":0,"fico":null,"ltv":null,"dti":null,"rate":6.75,"hmdaRate":null,"rateSource":"estimated","products":["Conventional"],"conf":70,"hmdaInsights":{"schemaVersion":2,"reportingYear":2024,"totalApplications":3,"totalOriginated":0,"actionTaken":{"1":0,"2":0,"3":0,"4":3,"5":0,"6":0,"7":0,"8":0},"denialReasons":{"1":0,"2":0,"3":0,"4":0,"5":0,"6":0,"7":0,"8":0,"9":0,"10":0},"denialReasonsSuppressedCount":0,"denialCount":0,"withdrawalCount":3,"incompleteCount":0,"approvedNotAcceptedCount":0,"purchasedLoanCount":0,"originatedMedianInterestRate":null,"originatedMedianRateSpread":null,"originatedMedianLoanTermMonths":null,"originatedMedianCltv":null,"originatedMedianDti":null,"spreadSampleSize":0,"termSampleSize":0,"cltvSampleSize":0,"dtiSampleSize":0,"interestRateSampleSize":0,"loanTypeSummary":{"1":{"applications":2,"originated":0,"dollarVolume":0},"2":{"applications":0,"originated":0,"dollarVolume":0},"3":{"applications":1,"originated":0,"dollarVolume":0},"4":{"applications":0,"originated":0,"dollarVolume":0}},"lienOnOriginated":{},"hoepaOnOriginated":{},"submissionOnApplications":{"1":3},"initiallyPayableOnApplications":{"3":3},"geographyHhiStates":null,"topStateOriginationShare":null,"stateBreakdown":[],"topCounties":[],"topMsas":[],"quarterlyFromLar":null,"monthlyFromLar":null,"hasActionTakenDate":false,"databrowserSource":false,"source":"modifiedLar-2024-direct","note":"Aggregated directly from FFIEC modified-LAR per-institution file."},"nmlsNumber":null,"legalName":"INTROLEND, LLC MOMENTUM","dba":null,"originationBreakdown":{"byProduct":{"Conventional":{"originated":0,"approximate":false,"hmdaLoanType":1},"FHA":{"originated":0,"approximate":false,"hmdaLoanType":2},"VA":{"originated":0,"approximate":false,"hmdaLoanType":3},"USDA":{"originated":0,"approximate":false,"hmdaLoanType":4}},"totalOriginatedUnits":0,"mergedInsightsFromYear":2024},"declinations":{"available":true,"mergedFromReportingYear":2024,"totalApplications":3,"deniedApplications":0,"withdrawnApplications":3,"incompleteApplications":0,"approvedNotAccepted":0,"purchasedLoans":0,"denialReasons":{"1":0,"2":0,"3":0,"4":0,"5":0,"6":0,"7":0,"8":0,"9":0,"10":0},"denialReasonsSuppressedCount":0},"rank":4902},{"lei":"984500599ABB43D69479","name":"Stellar Mortgage Corporation","nmls":"","type":"IMB","dataYear":2024,"orig":0,"dollarVol":0,"branches":null,"states":0,"fico":null,"ltv":null,"dti":null,"rate":6.75,"hmdaRate":null,"rateSource":"estimated","products":["Conventional"],"conf":70,"hmdaInsights":{"schemaVersion":2,"reportingYear":2024,"totalApplications":17,"totalOriginated":0,"actionTaken":{"1":0,"2":0,"3":11,"4":0,"5":6,"6":0,"7":0,"8":0},"denialReasons":{"1":3,"2":0,"3":3,"4":4,"5":2,"6":0,"7":0,"8":0,"9":0,"10":0},"denialReasonsSuppressedCount":0,"denialCount":11,"withdrawalCount":0,"incompleteCount":6,"approvedNotAcceptedCount":0,"purchasedLoanCount":0,"originatedMedianInterestRate":null,"originatedMedianRateSpread":null,"originatedMedianLoanTermMonths":null,"originatedMedianCltv":null,"originatedMedianDti":null,"spreadSampleSize":0,"termSampleSize":0,"cltvSampleSize":0,"dtiSampleSize":0,"interestRateSampleSize":0,"loanTypeSummary":{"1":{"applications":11,"originated":0,"dollarVolume":0},"2":{"applications":4,"originated":0,"dollarVolume":0},"3":{"applications":2,"originated":0,"dollarVolume":0},"4":{"applications":0,"originated":0,"dollarVolume":0}},"lienOnOriginated":{},"hoepaOnOriginated":{},"submissionOnApplications":{"1":17},"initiallyPayableOnApplications":{"2":17},"geographyHhiStates":null,"topStateOriginationShare":null,"stateBreakdown":[],"topCounties":[],"topMsas":[],"quarterlyFromLar":null,"monthlyFromLar":null,"hasActionTakenDate":false,"databrowserSource":false,"source":"modifiedLar-2024-direct","note":"Aggregated directly from FFIEC modified-LAR per-institution file."},"nmlsNumber":null,"legalName":"Stellar Mortgage Corporation","dba":null,"originationBreakdown":{"byProduct":{"Conventional":{"originated":0,"approximate":false,"hmdaLoanType":1},"FHA":{"originated":0,"approximate":false,"hmdaLoanType":2},"VA":{"originated":0,"approximate":false,"hmdaLoanType":3},"USDA":{"originated":0,"approximate":false,"hmdaLoanType":4}},"totalOriginatedUnits":0,"mergedInsightsFromYear":2024},"declinations":{"available":true,"mergedFromReportingYear":2024,"totalApplications":17,"deniedApplications":11,"withdrawnApplications":0,"incompleteApplications":6,"approvedNotAccepted":0,"purchasedLoans":0,"denialReasons":{"1":3,"2":0,"3":3,"4":4,"5":2,"6":0,"7":0,"8":0,"9":0,"10":0},"denialReasonsSuppressedCount":0},"rank":4903},{"lei":"984500593CHB00799D64","name":"Lifetime Home Loans","nmls":"","type":"IMB","dataYear":2024,"orig":0,"dollarVol":0,"branches":null,"states":0,"fico":null,"ltv":null,"dti":null,"rate":6.75,"hmdaRate":null,"rateSource":"estimated","products":["Conventional"],"conf":70,"hmdaInsights":{"schemaVersion":2,"reportingYear":2024,"totalApplications":1,"totalOriginated":0,"actionTaken":{"1":0,"2":0,"3":0,"4":0,"5":0,"6":0,"7":1,"8":0},"denialReasons":{"1":0,"2":0,"3":0,"4":0,"5":0,"6":0,"7":0,"8":0,"9":0,"10":0},"denialReasonsSuppressedCount":0,"denialCount":0,"withdrawalCount":0,"incompleteCount":0,"approvedNotAcceptedCount":0,"purchasedLoanCount":0,"originatedMedianInterestRate":null,"originatedMedianRateSpread":null,"originatedMedianLoanTermMonths":null,"originatedMedianCltv":null,"originatedMedianDti":null,"spreadSampleSize":0,"termSampleSize":0,"cltvSampleSize":0,"dtiSampleSize":0,"interestRateSampleSize":0,"loanTypeSummary":{"1":{"applications":1,"originated":0,"dollarVolume":0},"2":{"applications":0,"originated":0,"dollarVolume":0},"3":{"applications":0,"originated":0,"dollarVolume":0},"4":{"applications":0,"originated":0,"dollarVolume":0}},"lienOnOriginated":{},"hoepaOnOriginated":{},"submissionOnApplications":{"1":1},"initiallyPayableOnApplications":{"3":1},"geographyHhiStates":null,"topStateOriginationShare":null,"stateBreakdown":[],"topCounties":[],"topMsas":[],"quarterlyFromLar":null,"monthlyFromLar":null,"hasActionTakenDate":false,"databrowserSource":false,"source":"modifiedLar-2024-direct","note":"Aggregated directly from FFIEC modified-LAR per-institution file."},"nmlsNumber":null,"legalName":"Lifetime Home Loans","dba":null,"originationBreakdown":{"byProduct":{"Conventional":{"originated":0,"approximate":false,"hmdaLoanType":1},"FHA":{"originated":0,"approximate":false,"hmdaLoanType":2},"VA":{"originated":0,"approximate":false,"hmdaLoanType":3},"USDA":{"originated":0,"approximate":false,"hmdaLoanType":4}},"totalOriginatedUnits":0,"mergedInsightsFromYear":2024},"declinations":{"available":true,"mergedFromReportingYear":2024,"totalApplications":1,"deniedApplications":0,"withdrawnApplications":0,"incompleteApplications":0,"approvedNotAccepted":0,"purchasedLoans":0,"denialReasons":{"1":0,"2":0,"3":0,"4":0,"5":0,"6":0,"7":0,"8":0,"9":0,"10":0},"denialReasonsSuppressedCount":0},"rank":4904},{"lei":"549300IV5SQUT73JEX09","name":"LANCASTER MORTGAGE COMPANY","nmls":"","type":"IMB","dataYear":2024,"orig":0,"dollarVol":0,"branches":null,"states":0,"fico":null,"ltv":null,"dti":null,"rate":6.75,"hmdaRate":null,"rateSource":"estimated","products":["Conventional"],"conf":70,"hmdaInsights":{"schemaVersion":2,"reportingYear":2024,"totalApplications":6,"totalOriginated":0,"actionTaken":{"1":0,"2":0,"3":1,"4":5,"5":0,"6":0,"7":0,"8":0},"denialReasons":{"1":1,"2":0,"3":0,"4":0,"5":0,"6":0,"7":0,"8":0,"9":0,"10":0},"denialReasonsSuppressedCount":0,"denialCount":1,"withdrawalCount":5,"incompleteCount":0,"approvedNotAcceptedCount":0,"purchasedLoanCount":0,"originatedMedianInterestRate":null,"originatedMedianRateSpread":null,"originatedMedianLoanTermMonths":null,"originatedMedianCltv":null,"originatedMedianDti":null,"spreadSampleSize":0,"termSampleSize":0,"cltvSampleSize":0,"dtiSampleSize":0,"interestRateSampleSize":0,"loanTypeSummary":{"1":{"applications":3,"originated":0,"dollarVolume":0},"2":{"applications":0,"originated":0,"dollarVolume":0},"3":{"applications":3,"originated":0,"dollarVolume":0},"4":{"applications":0,"originated":0,"dollarVolume":0}},"lienOnOriginated":{},"hoepaOnOriginated":{},"submissionOnApplications":{"1":6},"initiallyPayableOnApplications":{"1":6},"geographyHhiStates":null,"topStateOriginationShare":null,"stateBreakdown":[],"topCounties":[],"topMsas":[],"quarterlyFromLar":null,"monthlyFromLar":null,"hasActionTakenDate":false,"databrowserSource":false,"source":"modifiedLar-2024-direct","note":"Aggregated directly from FFIEC modified-LAR per-institution file."},"nmlsNumber":null,"legalName":"LANCASTER MORTGAGE COMPANY","dba":null,"originationBreakdown":{"byProduct":{"Conventional":{"originated":0,"approximate":false,"hmdaLoanType":1},"FHA":{"originated":0,"approximate":false,"hmdaLoanType":2},"VA":{"originated":0,"approximate":false,"hmdaLoanType":3},"USDA":{"originated":0,"approximate":false,"hmdaLoanType":4}},"totalOriginatedUnits":0,"mergedInsightsFromYear":2024},"declinations":{"available":true,"mergedFromReportingYear":2024,"totalApplications":6,"deniedApplications":1,"withdrawnApplications":5,"incompleteApplications":0,"approvedNotAccepted":0,"purchasedLoans":0,"denialReasons":{"1":1,"2":0,"3":0,"4":0,"5":0,"6":0,"7":0,"8":0,"9":0,"10":0},"denialReasonsSuppressedCount":0},"rank":4905},{"lei":"549300F7LVIOO42D5630","name":"THE LOCAL","nmls":"","type":"IMB","dataYear":2024,"orig":0,"dollarVol":0,"branches":null,"states":0,"fico":null,"ltv":null,"dti":null,"rate":6.75,"hmdaRate":null,"rateSource":"estimated","products":["Conventional"],"conf":70,"hmdaInsights":{"schemaVersion":2,"reportingYear":2024,"totalApplications":7,"totalOriginated":0,"actionTaken":{"1":0,"2":0,"3":0,"4":0,"5":0,"6":7,"7":0,"8":0},"denialReasons":{"1":0,"2":0,"3":0,"4":0,"5":0,"6":0,"7":0,"8":0,"9":0,"10":0},"denialReasonsSuppressedCount":0,"denialCount":0,"withdrawalCount":0,"incompleteCount":0,"approvedNotAcceptedCount":0,"purchasedLoanCount":7,"originatedMedianInterestRate":null,"originatedMedianRateSpread":null,"originatedMedianLoanTermMonths":null,"originatedMedianCltv":null,"originatedMedianDti":null,"spreadSampleSize":0,"termSampleSize":0,"cltvSampleSize":0,"dtiSampleSize":0,"interestRateSampleSize":0,"loanTypeSummary":{"1":{"applications":7,"originated":0,"dollarVolume":0},"2":{"applications":0,"originated":0,"dollarVolume":0},"3":{"applications":0,"originated":0,"dollarVolume":0},"4":{"applications":0,"originated":0,"dollarVolume":0}},"lienOnOriginated":{},"hoepaOnOriginated":{},"submissionOnApplications":{"3":7},"initiallyPayableOnApplications":{"3":7},"geographyHhiStates":null,"topStateOriginationShare":null,"stateBreakdown":[],"topCounties":[],"topMsas":[],"quarterlyFromLar":null,"monthlyFromLar":null,"hasActionTakenDate":false,"databrowserSource":false,"source":"modifiedLar-2024-direct","note":"Aggregated directly from FFIEC modified-LAR per-institution file."},"nmlsNumber":null,"legalName":"THE LOCAL","dba":null,"originationBreakdown":{"byProduct":{"Conventional":{"originated":0,"approximate":false,"hmdaLoanType":1},"FHA":{"originated":0,"approximate":false,"hmdaLoanType":2},"VA":{"originated":0,"approximate":false,"hmdaLoanType":3},"USDA":{"originated":0,"approximate":false,"hmdaLoanType":4}},"totalOriginatedUnits":0,"mergedInsightsFromYear":2024},"declinations":{"available":true,"mergedFromReportingYear":2024,"totalApplications":7,"deniedApplications":0,"withdrawnApplications":0,"incompleteApplications":0,"approvedNotAccepted":0,"purchasedLoans":7,"denialReasons":{"1":0,"2":0,"3":0,"4":0,"5":0,"6":0,"7":0,"8":0,"9":0,"10":0},"denialReasonsSuppressedCount":0},"rank":4906},{"lei":"549300ISBO500DQ50239","name":"BFG Federal Credit Union","nmls":"","type":"IMB","dataYear":2024,"orig":0,"dollarVol":0,"branches":null,"states":0,"fico":null,"ltv":null,"dti":null,"rate":6.5,"hmdaRate":null,"rateSource":"estimated","products":["Conventional"],"conf":70,"hmdaInsights":{"schemaVersion":2,"reportingYear":2024,"totalApplications":2,"totalOriginated":0,"actionTaken":{"1":0,"2":0,"3":0,"4":0,"5":0,"6":2,"7":0,"8":0},"denialReasons":{"1":0,"2":0,"3":0,"4":0,"5":0,"6":0,"7":0,"8":0,"9":0,"10":0},"denialReasonsSuppressedCount":0,"denialCount":0,"withdrawalCount":0,"incompleteCount":0,"approvedNotAcceptedCount":0,"purchasedLoanCount":2,"originatedMedianInterestRate":null,"originatedMedianRateSpread":null,"originatedMedianLoanTermMonths":null,"originatedMedianCltv":null,"originatedMedianDti":null,"spreadSampleSize":0,"termSampleSize":0,"cltvSampleSize":0,"dtiSampleSize":0,"interestRateSampleSize":0,"loanTypeSummary":{"1":{"applications":2,"originated":0,"dollarVolume":0},"2":{"applications":0,"originated":0,"dollarVolume":0},"3":{"applications":0,"originated":0,"dollarVolume":0},"4":{"applications":0,"originated":0,"dollarVolume":0}},"lienOnOriginated":{},"hoepaOnOriginated":{},"submissionOnApplications":{"3":2},"initiallyPayableOnApplications":{"3":2},"geographyHhiStates":null,"topStateOriginationShare":null,"stateBreakdown":[],"topCounties":[],"topMsas":[],"quarterlyFromLar":null,"monthlyFromLar":null,"hasActionTakenDate":false,"databrowserSource":false,"source":"modifiedLar-2024-direct","note":"Aggregated directly from FFIEC modified-LAR per-institution file."},"nmlsNumber":null,"legalName":"BFG Federal Credit Union","dba":null,"originationBreakdown":{"byProduct":{"Conventional":{"originated":0,"approximate":false,"hmdaLoanType":1},"FHA":{"originated":0,"approximate":false,"hmdaLoanType":2},"VA":{"originated":0,"approximate":false,"hmdaLoanType":3},"USDA":{"originated":0,"approximate":false,"hmdaLoanType":4}},"totalOriginatedUnits":0,"mergedInsightsFromYear":2024},"declinations":{"available":true,"mergedFromReportingYear":2024,"totalApplications":2,"deniedApplications":0,"withdrawnApplications":0,"incompleteApplications":0,"approvedNotAccepted":0,"purchasedLoans":2,"denialReasons":{"1":0,"2":0,"3":0,"4":0,"5":0,"6":0,"7":0,"8":0,"9":0,"10":0},"denialReasonsSuppressedCount":0},"rank":4907},{"lei":"984500886D1O50BB0036","name":"IntroLend, LLC Carolinas","nmls":"","type":"IMB","dataYear":2024,"orig":0,"dollarVol":0,"branches":null,"states":0,"fico":null,"ltv":null,"dti":null,"rate":6.75,"hmdaRate":null,"rateSource":"estimated","products":["Conventional"],"conf":70,"hmdaInsights":{"schemaVersion":2,"reportingYear":2024,"totalApplications":1,"totalOriginated":0,"actionTaken":{"1":0,"2":0,"3":0,"4":1,"5":0,"6":0,"7":0,"8":0},"denialReasons":{"1":0,"2":0,"3":0,"4":0,"5":0,"6":0,"7":0,"8":0,"9":0,"10":0},"denialReasonsSuppressedCount":0,"denialCount":0,"withdrawalCount":1,"incompleteCount":0,"approvedNotAcceptedCount":0,"purchasedLoanCount":0,"originatedMedianInterestRate":null,"originatedMedianRateSpread":null,"originatedMedianLoanTermMonths":null,"originatedMedianCltv":null,"originatedMedianDti":null,"spreadSampleSize":0,"termSampleSize":0,"cltvSampleSize":0,"dtiSampleSize":0,"interestRateSampleSize":0,"loanTypeSummary":{"1":{"applications":1,"originated":0,"dollarVolume":0},"2":{"applications":0,"originated":0,"dollarVolume":0},"3":{"applications":0,"originated":0,"dollarVolume":0},"4":{"applications":0,"originated":0,"dollarVolume":0}},"lienOnOriginated":{},"hoepaOnOriginated":{},"submissionOnApplications":{"1":1},"initiallyPayableOnApplications":{"3":1},"geographyHhiStates":null,"topStateOriginationShare":null,"stateBreakdown":[],"topCounties":[],"topMsas":[],"quarterlyFromLar":null,"monthlyFromLar":null,"hasActionTakenDate":false,"databrowserSource":false,"source":"modifiedLar-2024-direct","note":"Aggregated directly from FFIEC modified-LAR per-institution file."},"nmlsNumber":null,"legalName":"IntroLend, LLC Carolinas","dba":null,"originationBreakdown":{"byProduct":{"Conventional":{"originated":0,"approximate":false,"hmdaLoanType":1},"FHA":{"originated":0,"approximate":false,"hmdaLoanType":2},"VA":{"originated":0,"approximate":false,"hmdaLoanType":3},"USDA":{"originated":0,"approximate":false,"hmdaLoanType":4}},"totalOriginatedUnits":0,"mergedInsightsFromYear":2024},"declinations":{"available":true,"mergedFromReportingYear":2024,"totalApplications":1,"deniedApplications":0,"withdrawnApplications":1,"incompleteApplications":0,"approvedNotAccepted":0,"purchasedLoans":0,"denialReasons":{"1":0,"2":0,"3":0,"4":0,"5":0,"6":0,"7":0,"8":0,"9":0,"10":0},"denialReasonsSuppressedCount":0},"rank":4908}]}