{"meta":{"dataYear":2025,"page":239,"pageSize":20,"total":4784,"totalPages":240,"exportedAt":"2026-05-28T16:55:07.543Z"},"lenders":[{"lei":"549300SI264HNSER6O81","name":"K&G CAPITAL MORTGAGE LLC","nmls":"","type":"IMB","dataYear":2025,"orig":0,"dollarVol":0,"branches":null,"states":0,"fico":null,"ltv":null,"dti":null,"rate":6.75,"hmdaRate":null,"rateSource":"estimated","products":["Conventional"],"conf":70,"hmdaInsights":{"schemaVersion":2,"reportingYear":2025,"totalApplications":145,"totalOriginated":0,"actionTaken":{"1":0,"2":0,"3":0,"4":145,"5":0,"6":0,"7":0,"8":0},"denialReasons":{"1":0,"2":0,"3":0,"4":0,"5":0,"6":0,"7":0,"8":0,"9":0,"10":0},"denialReasonsSuppressedCount":0,"denialCount":0,"withdrawalCount":145,"incompleteCount":0,"approvedNotAcceptedCount":0,"purchasedLoanCount":0,"originatedMedianInterestRate":null,"originatedMedianRateSpread":null,"originatedMedianLoanTermMonths":null,"originatedMedianCltv":null,"originatedMedianDti":null,"spreadSampleSize":0,"termSampleSize":0,"cltvSampleSize":0,"dtiSampleSize":0,"interestRateSampleSize":0,"loanTypeSummary":{"1":{"applications":87,"originated":0,"dollarVolume":0},"2":{"applications":44,"originated":0,"dollarVolume":0},"3":{"applications":14,"originated":0,"dollarVolume":0},"4":{"applications":0,"originated":0,"dollarVolume":0}},"lienOnOriginated":{},"hoepaOnOriginated":{},"submissionOnApplications":{"1":145},"initiallyPayableOnApplications":{"1":94,"2":51},"geographyHhiStates":null,"topStateOriginationShare":null,"stateBreakdown":[],"topCounties":[],"topMsas":[],"quarterlyFromLar":null,"monthlyFromLar":null,"hasActionTakenDate":false,"databrowserSource":false,"source":"modifiedLar-2025-direct","note":"Aggregated directly from FFIEC modified-LAR per-institution file."},"nmlsNumber":null,"legalName":"K&G CAPITAL MORTGAGE LLC","dba":null,"originationBreakdown":{"byProduct":{"Conventional":{"originated":0,"approximate":false,"hmdaLoanType":1},"FHA":{"originated":0,"approximate":false,"hmdaLoanType":2},"VA":{"originated":0,"approximate":false,"hmdaLoanType":3},"USDA":{"originated":0,"approximate":false,"hmdaLoanType":4}},"totalOriginatedUnits2025":0,"mergedInsightsFromYear":2025},"declinations":{"available":true,"mergedFromReportingYear":2025,"totalApplications":145,"deniedApplications":0,"withdrawnApplications":145,"incompleteApplications":0,"approvedNotAccepted":0,"purchasedLoans":0,"denialReasons":{"1":0,"2":0,"3":0,"4":0,"5":0,"6":0,"7":0,"8":0,"9":0,"10":0},"denialReasonsSuppressedCount":0},"rank":4781},{"lei":"254900OT54ME4E0YT820","name":"MHC Note Holdings c/o SRH CAPITAL, LLC","nmls":"","type":"IMB","dataYear":2025,"orig":0,"dollarVol":0,"branches":null,"states":0,"fico":null,"ltv":null,"dti":null,"rate":6.75,"hmdaRate":null,"rateSource":"estimated","products":["Conventional"],"conf":70,"hmdaInsights":{"schemaVersion":2,"reportingYear":2025,"totalApplications":107,"totalOriginated":0,"actionTaken":{"1":0,"2":0,"3":0,"4":0,"5":0,"6":107,"7":0,"8":0},"denialReasons":{"1":0,"2":0,"3":0,"4":0,"5":0,"6":0,"7":0,"8":0,"9":0,"10":0},"denialReasonsSuppressedCount":0,"denialCount":0,"withdrawalCount":0,"incompleteCount":0,"approvedNotAcceptedCount":0,"purchasedLoanCount":107,"originatedMedianInterestRate":null,"originatedMedianRateSpread":null,"originatedMedianLoanTermMonths":null,"originatedMedianCltv":null,"originatedMedianDti":null,"spreadSampleSize":0,"termSampleSize":0,"cltvSampleSize":0,"dtiSampleSize":0,"interestRateSampleSize":0,"loanTypeSummary":{"1":{"applications":0,"originated":0,"dollarVolume":0},"2":{"applications":107,"originated":0,"dollarVolume":0},"3":{"applications":0,"originated":0,"dollarVolume":0},"4":{"applications":0,"originated":0,"dollarVolume":0}},"lienOnOriginated":{},"hoepaOnOriginated":{},"submissionOnApplications":{"3":107},"initiallyPayableOnApplications":{"3":107},"geographyHhiStates":null,"topStateOriginationShare":null,"stateBreakdown":[],"topCounties":[],"topMsas":[],"quarterlyFromLar":null,"monthlyFromLar":null,"hasActionTakenDate":false,"databrowserSource":false,"source":"modifiedLar-2025-direct","note":"Aggregated directly from FFIEC modified-LAR per-institution file."},"nmlsNumber":null,"legalName":"MHC Note Holdings c/o SRH CAPITAL, LLC","dba":null,"originationBreakdown":{"byProduct":{"Conventional":{"originated":0,"approximate":false,"hmdaLoanType":1},"FHA":{"originated":0,"approximate":false,"hmdaLoanType":2},"VA":{"originated":0,"approximate":false,"hmdaLoanType":3},"USDA":{"originated":0,"approximate":false,"hmdaLoanType":4}},"totalOriginatedUnits2025":0,"mergedInsightsFromYear":2025},"declinations":{"available":true,"mergedFromReportingYear":2025,"totalApplications":107,"deniedApplications":0,"withdrawnApplications":0,"incompleteApplications":0,"approvedNotAccepted":0,"purchasedLoans":107,"denialReasons":{"1":0,"2":0,"3":0,"4":0,"5":0,"6":0,"7":0,"8":0,"9":0,"10":0},"denialReasonsSuppressedCount":0},"rank":4782},{"lei":"549300DC5T16PY5CHJ27","name":"Coastal States Mortgage, Inc.","nmls":"","type":"IMB","dataYear":2025,"orig":0,"dollarVol":0,"branches":null,"states":0,"fico":null,"ltv":null,"dti":null,"rate":6.75,"hmdaRate":null,"rateSource":"estimated","products":["Conventional"],"conf":70,"hmdaInsights":{"schemaVersion":2,"reportingYear":2025,"totalApplications":16,"totalOriginated":0,"actionTaken":{"1":0,"2":0,"3":3,"4":13,"5":0,"6":0,"7":0,"8":0},"denialReasons":{"1":0,"2":0,"3":1,"4":1,"5":0,"6":0,"7":0,"8":0,"9":1,"10":0},"denialReasonsSuppressedCount":0,"denialCount":3,"withdrawalCount":13,"incompleteCount":0,"approvedNotAcceptedCount":0,"purchasedLoanCount":0,"originatedMedianInterestRate":null,"originatedMedianRateSpread":null,"originatedMedianLoanTermMonths":null,"originatedMedianCltv":null,"originatedMedianDti":null,"spreadSampleSize":0,"termSampleSize":0,"cltvSampleSize":0,"dtiSampleSize":0,"interestRateSampleSize":0,"loanTypeSummary":{"1":{"applications":11,"originated":0,"dollarVolume":0},"2":{"applications":4,"originated":0,"dollarVolume":0},"3":{"applications":1,"originated":0,"dollarVolume":0},"4":{"applications":0,"originated":0,"dollarVolume":0}},"lienOnOriginated":{},"hoepaOnOriginated":{},"submissionOnApplications":{"1":16},"initiallyPayableOnApplications":{"3":16},"geographyHhiStates":null,"topStateOriginationShare":null,"stateBreakdown":[],"topCounties":[],"topMsas":[],"quarterlyFromLar":null,"monthlyFromLar":null,"hasActionTakenDate":false,"databrowserSource":false,"source":"modifiedLar-2025-direct","note":"Aggregated directly from FFIEC modified-LAR per-institution file."},"nmlsNumber":null,"legalName":"Coastal States Mortgage, Inc.","dba":null,"originationBreakdown":{"byProduct":{"Conventional":{"originated":0,"approximate":false,"hmdaLoanType":1},"FHA":{"originated":0,"approximate":false,"hmdaLoanType":2},"VA":{"originated":0,"approximate":false,"hmdaLoanType":3},"USDA":{"originated":0,"approximate":false,"hmdaLoanType":4}},"totalOriginatedUnits2025":0,"mergedInsightsFromYear":2025},"declinations":{"available":true,"mergedFromReportingYear":2025,"totalApplications":16,"deniedApplications":3,"withdrawnApplications":13,"incompleteApplications":0,"approvedNotAccepted":0,"purchasedLoans":0,"denialReasons":{"1":0,"2":0,"3":1,"4":1,"5":0,"6":0,"7":0,"8":0,"9":1,"10":0},"denialReasonsSuppressedCount":0},"rank":4783},{"lei":"549300F7LVIOO42D5630","name":"THE LOCAL","nmls":"","type":"IMB","dataYear":2025,"orig":0,"dollarVol":0,"branches":null,"states":0,"fico":null,"ltv":null,"dti":null,"rate":6.75,"hmdaRate":null,"rateSource":"estimated","products":["Conventional"],"conf":70,"hmdaInsights":{"schemaVersion":2,"reportingYear":2025,"totalApplications":1,"totalOriginated":0,"actionTaken":{"1":0,"2":0,"3":0,"4":0,"5":0,"6":1,"7":0,"8":0},"denialReasons":{"1":0,"2":0,"3":0,"4":0,"5":0,"6":0,"7":0,"8":0,"9":0,"10":0},"denialReasonsSuppressedCount":0,"denialCount":0,"withdrawalCount":0,"incompleteCount":0,"approvedNotAcceptedCount":0,"purchasedLoanCount":1,"originatedMedianInterestRate":null,"originatedMedianRateSpread":null,"originatedMedianLoanTermMonths":null,"originatedMedianCltv":null,"originatedMedianDti":null,"spreadSampleSize":0,"termSampleSize":0,"cltvSampleSize":0,"dtiSampleSize":0,"interestRateSampleSize":0,"loanTypeSummary":{"1":{"applications":1,"originated":0,"dollarVolume":0},"2":{"applications":0,"originated":0,"dollarVolume":0},"3":{"applications":0,"originated":0,"dollarVolume":0},"4":{"applications":0,"originated":0,"dollarVolume":0}},"lienOnOriginated":{},"hoepaOnOriginated":{},"submissionOnApplications":{"3":1},"initiallyPayableOnApplications":{"3":1},"geographyHhiStates":null,"topStateOriginationShare":null,"stateBreakdown":[],"topCounties":[],"topMsas":[],"quarterlyFromLar":null,"monthlyFromLar":null,"hasActionTakenDate":false,"databrowserSource":false,"source":"modifiedLar-2025-direct","note":"Aggregated directly from FFIEC modified-LAR per-institution file."},"nmlsNumber":null,"legalName":"THE LOCAL","dba":null,"originationBreakdown":{"byProduct":{"Conventional":{"originated":0,"approximate":false,"hmdaLoanType":1},"FHA":{"originated":0,"approximate":false,"hmdaLoanType":2},"VA":{"originated":0,"approximate":false,"hmdaLoanType":3},"USDA":{"originated":0,"approximate":false,"hmdaLoanType":4}},"totalOriginatedUnits2025":0,"mergedInsightsFromYear":2025},"declinations":{"available":true,"mergedFromReportingYear":2025,"totalApplications":1,"deniedApplications":0,"withdrawnApplications":0,"incompleteApplications":0,"approvedNotAccepted":0,"purchasedLoans":1,"denialReasons":{"1":0,"2":0,"3":0,"4":0,"5":0,"6":0,"7":0,"8":0,"9":0,"10":0},"denialReasonsSuppressedCount":0},"rank":4784}]}